%YAML 1.1
%TAG !u! tag:unity3d.com,2011:
--- !u!1 &100000
GameObject:
  m_ObjectHideFlags: 0
  m_PrefabParentObject: {fileID: 0}
  m_PrefabInternal: {fileID: 100100000}
  serializedVersion: 5
  m_Component:
  - component: {fileID: 400000}
  - component: {fileID: 11400000}
  - component: {fileID: 8200000}
  - component: {fileID: 96922825220237110}
  m_Layer: 0
  m_Name: Bullet
  m_TagString: Projectile
  m_Icon: {fileID: 0}
  m_NavMeshLayer: 0
  m_StaticEditorFlags: 0
  m_IsActive: 1
--- !u!1002 &100001
EditorExtensionImpl:
  serializedVersion: 6
--- !u!4 &400000
Transform:
  m_ObjectHideFlags: 1
  m_PrefabParentObject: {fileID: 0}
  m_PrefabInternal: {fileID: 100100000}
  m_GameObject: {fileID: 100000}
  m_LocalRotation: {x: 0, y: 0, z: 0, w: 1}
  m_LocalPosition: {x: 0, y: 0, z: 0}
  m_LocalScale: {x: 0.01, y: 0.01, z: 0.01}
  m_Children: []
  m_Father: {fileID: 0}
  m_RootOrder: 0
  m_LocalEulerAnglesHint: {x: 0, y: 0, z: 0}
--- !u!1002 &400001
EditorExtensionImpl:
  serializedVersion: 6
--- !u!82 &8200000
AudioSource:
  m_ObjectHideFlags: 1
  m_PrefabParentObject: {fileID: 0}
  m_PrefabInternal: {fileID: 100100000}
  m_GameObject: {fileID: 100000}
  m_Enabled: 1
  serializedVersion: 4
  OutputAudioMixerGroup: {fileID: 0}
  m_audioClip: {fileID: 0}
  m_PlayOnAwake: 0
  m_Volume: 1
  m_Pitch: 1
  Loop: 0
  Mute: 0
  Spatialize: 0
  SpatializePostEffects: 0
  Priority: 128
  DopplerLevel: 1
  MinDistance: 1
  MaxDistance: 500
  Pan2D: 0
  rolloffMode: 0
  BypassEffects: 0
  BypassListenerEffects: 0
  BypassReverbZones: 0
  rolloffCustomCurve:
    serializedVersion: 2
    m_Curve:
    - serializedVersion: 2
      time: 0
      value: 1
      inSlope: 0
      outSlope: 0
      tangentMode: 0
    - serializedVersion: 2
      time: 1
      value: 0
      inSlope: 0
      outSlope: 0
      tangentMode: 0
    m_PreInfinity: 2
    m_PostInfinity: 2
    m_RotationOrder: 4
  panLevelCustomCurve:
    serializedVersion: 2
    m_Curve:
    - serializedVersion: 2
      time: 0
      value: 1
      inSlope: 0
      outSlope: 0
      tangentMode: 0
    m_PreInfinity: 2
    m_PostInfinity: 2
    m_RotationOrder: 4
  spreadCustomCurve:
    serializedVersion: 2
    m_Curve:
    - serializedVersion: 2
      time: 0
      value: 0
      inSlope: 0
      outSlope: 0
      tangentMode: 0
    m_PreInfinity: 2
    m_PostInfinity: 2
    m_RotationOrder: 4
  reverbZoneMixCustomCurve:
    serializedVersion: 2
    m_Curve:
    - serializedVersion: 2
      time: 0
      value: 1
      inSlope: 0
      outSlope: 0
      tangentMode: 0
    m_PreInfinity: 2
    m_PostInfinity: 2
    m_RotationOrder: 4
--- !u!1002 &9600001
EditorExtensionImpl:
  serializedVersion: 6
--- !u!114 &11400000
MonoBehaviour:
  m_ObjectHideFlags: 1
  m_PrefabParentObject: {fileID: 0}
  m_PrefabInternal: {fileID: 100100000}
  m_GameObject: {fileID: 100000}
  m_Enabled: 1
  m_EditorHideFlags: 0
  m_Script: {fileID: 11500000, guid: d94780aa9e837d04f9b225851664d0cc, type: 3}
  m_Name: 
  m_EditorClassIdentifier: 
  DirectionFrom: {x: 0, y: 0, z: 0}
  isNetwork: 0
  GunName: 
  isTracer: 0
  AudioReferences: {fileID: 8253962, guid: f3594dedfe829764594d871f5b460a33, type: 2}
  ConcreteSound: {fileID: 8300000, guid: 6cf913de62eac4c63ac123fcd579687d, type: 3}
  MetalSound: {fileID: 8300000, guid: 44b54b1654e2046a6bb329e95ab7dec2, type: 3}
  GenericSound: {fileID: 8300000, guid: b700248f6ac01a14093b6d1107fc0492, type: 3}
  WoodSound: {fileID: 8300000, guid: 31903844de0ca438e8db5bf6b3fd4b87, type: 3}
  WaterSound: {fileID: 8300000, guid: 21ae7520d267c9a499406f519a8b929b, type: 3}
  mPicht: {x: 1, y: 1.5}
  woodParticle: {fileID: 1000011190285628, guid: beb3acff7ab73944fb8f470f24d74ed3,
    type: 2}
  metalParticle: {fileID: 1000010355441670, guid: 02a509a7fa70ed740ba4197e20c5d32d,
    type: 2}
  concreteParticle: {fileID: 1000010191825552, guid: 83e55d3418297934fab882559d009285,
    type: 2}
  sandParticle: {fileID: 1000012142692022, guid: a475880e7da0e9548aa05cb7933752cd,
    type: 2}
  waterParticle: {fileID: 1207871914986542, guid: cc0ed5c90f000224d9121d5a47d39960,
    type: 2}
  genericParticle: {fileID: 1000010844420130, guid: 4edabb1c0dde62743b137378c7d22980,
    type: 2}
  bloodParticle: {fileID: 1647167576833108, guid: b44ee2a8ca10c9d4abe282e79307fd9c,
    type: 2}
  Trail: {fileID: 96922825220237110}
--- !u!1002 &11400001
EditorExtensionImpl:
  serializedVersion: 6
--- !u!1001 &100100000
Prefab:
  m_ObjectHideFlags: 1
  serializedVersion: 2
  m_Modification:
    m_TransformParent: {fileID: 0}
    m_Modifications:
    - target: {fileID: 0}
      propertyPath: mHitsSounds.Array.size
      value: 4
      objectReference: {fileID: 0}
    - target: {fileID: 0}
      propertyPath: AudioReferences
      value: 
      objectReference: {fileID: 8253962, guid: f3594dedfe829764594d871f5b460a33, type: 2}
    - target: {fileID: 0}
      propertyPath: mHitsSounds.Array.data[3]
      value: 
      objectReference: {fileID: 8300000, guid: 21ae7520d267c9a499406f519a8b929b, type: 3}
    - target: {fileID: 0}
      propertyPath: ConcreteSound
      value: 
      objectReference: {fileID: 8300000, guid: 6cf913de62eac4c63ac123fcd579687d, type: 3}
    - target: {fileID: 0}
      propertyPath: MetalSound
      value: 
      objectReference: {fileID: 8300000, guid: 44b54b1654e2046a6bb329e95ab7dec2, type: 3}
    - target: {fileID: 0}
      propertyPath: WaterSound
      value: 
      objectReference: {fileID: 8300000, guid: 21ae7520d267c9a499406f519a8b929b, type: 3}
    - target: {fileID: 0}
      propertyPath: WoodSound
      value: 
      objectReference: {fileID: 8300000, guid: 31903844de0ca438e8db5bf6b3fd4b87, type: 3}
    - target: {fileID: 0}
      propertyPath: GenericSound
      value: 
      objectReference: {fileID: 8300000, guid: b700248f6ac01a14093b6d1107fc0492, type: 3}
    - target: {fileID: 0}
      propertyPath: m_Enabled
      value: 0
      objectReference: {fileID: 0}
    m_RemovedComponents: []
  m_ParentPrefab: {fileID: 0}
  m_RootGameObject: {fileID: 100000}
  m_IsPrefabParent: 1
--- !u!1002 &100100001
EditorExtensionImpl:
  serializedVersion: 6
--- !u!96 &96922825220237110
TrailRenderer:
  serializedVersion: 2
  m_ObjectHideFlags: 1
  m_PrefabParentObject: {fileID: 0}
  m_PrefabInternal: {fileID: 100100000}
  m_GameObject: {fileID: 100000}
  m_Enabled: 1
  m_CastShadows: 0
  m_ReceiveShadows: 0
  m_MotionVectors: 1
  m_LightProbeUsage: 0
  m_ReflectionProbeUsage: 0
  m_Materials:
  - {fileID: 2100000, guid: f24f1eb3b1f10b848b1f4a0f8cc545c6, type: 2}
  m_StaticBatchInfo:
    firstSubMesh: 0
    subMeshCount: 0
  m_StaticBatchRoot: {fileID: 0}
  m_ProbeAnchor: {fileID: 0}
  m_LightProbeVolumeOverride: {fileID: 0}
  m_ScaleInLightmap: 1
  m_PreserveUVs: 0
  m_IgnoreNormalsForChartDetection: 0
  m_ImportantGI: 0
  m_SelectedEditorRenderState: 3
  m_MinimumChartSize: 4
  m_AutoUVMaxDistance: 0.5
  m_AutoUVMaxAngle: 89
  m_LightmapParameters: {fileID: 0}
  m_SortingLayerID: 0
  m_SortingLayer: 0
  m_SortingOrder: 0
  m_Time: 0.1
  m_Parameters:
    serializedVersion: 2
    widthMultiplier: 1
    widthCurve:
      serializedVersion: 2
      m_Curve:
      - serializedVersion: 2
        time: 0
        value: 0.17037582
        inSlope: 0
        outSlope: 0
        tangentMode: 0
      - serializedVersion: 2
        time: 0.99514353
        value: 0.08148193
        inSlope: 0
        outSlope: 0
        tangentMode: 0
      m_PreInfinity: 2
      m_PostInfinity: 2
      m_RotationOrder: 0
    colorGradient:
      serializedVersion: 2
      key0: {r: 1, g: 1, b: 1, a: 1}
      key1: {r: 1, g: 1, b: 1, a: 1}
      key2: {r: 0, g: 0, b: 0, a: 0}
      key3: {r: 0, g: 0, b: 0, a: 0}
      key4: {r: 0, g: 0, b: 0, a: 0}
      key5: {r: 0, g: 0, b: 0, a: 0}
      key6: {r: 0, g: 0, b: 0, a: 0}
      key7: {r: 0, g: 0, b: 0, a: 0}
      ctime0: 0
      ctime1: 65535
      ctime2: 0
      ctime3: 0
      ctime4: 0
      ctime5: 0
      ctime6: 0
      ctime7: 0
      atime0: 0
      atime1: 65535
      atime2: 0
      atime3: 0
      atime4: 0
      atime5: 0
      atime6: 0
      atime7: 0
      m_Mode: 0
      m_NumColorKeys: 2
      m_NumAlphaKeys: 2
    numCornerVertices: 0
    numCapVertices: 0
    alignment: 0
    textureMode: 0
  m_MinVertexDistance: 0
  m_Autodestruct: 0
